12.7,
14.8,
-1,
20.2,
26.3,
9.5,
6.6,
9.7,
8.4,
3.0,
4.7,
3.1,
3.8,
2.5,
3.8,
4.7,
5.3,
6.7,
6.4,
7.8,
7.0,
4.4,
3.9,
4.4,
6.7,
8.5,
9.6,
9.6,
10.5,
9.0,
16.0,
23.6,
24.5,
8.6,
9.7,
12.4,
13.8,
10.2,
10.0,
8.4,
5.1,
2.6,
1.3,
1.9,
2.2,
3.1,
5.0,
5.2,
6.6,
16.6,
11.4,
3.8,
11.1,
19.0,
19.0,
17.7,
16.8,
14.7,
8.6,
8.0,
8.1,
8.0,
7.4,
6.9,
8.9,
6.3,
6.4,
5.9,
3.7,
4.2,
3.3,
9.7,
16.8,
21.8,
22.7,
21.6,
16.1,
12.2,
12.9,
11.7,
5.7,
4.8,
5.7,
5.5,
4.9,
5.4,
5.3,
4.4,
7.7,
3.1,
4.6,
3.8,
5.3,
4.0,
6.5,
10.3,
10.1,
10.9,
10.3,
18.0,
21.0,
11.4,
5.5,
7.3,
6.7,
6.7,
4.1,
7.5,
6.3,
6.7,
6.8,
4.0,
4.3,
2.5,
4.9,
-1,
5.8,
9.9,
12.5,
11.5,
12.6,
11.1,
13.3,
13.5,
32.2,
23.0,
17.7,
8.8,
5.5,
7.3,
4.2,
3.0,
4.3,
8.1,
5.6,
3.5,
3.4,
3.7,
4.9,
5.2,
4.4,
3.9,
10.0,
10.7,
14.8,
16.3,
18.3,
16.2,
17.5,
12.3,
10.2,
18.1,
5.5,
5.4,
5.5,
5.1,
3.7,
7.9,
5.8,
5.8,
5.2,
5.6,
6.8,
3.5,
6.3,
9.0,
8.8,
9.2,
10.2,
8.9,
7.5,
7.6,
21.9,
12.7,
14.0,
3.6,
3.3,
7.5,
7.0,
6.4,
4.6,
5.6,
5.0,
6.2,
6.1,
5.1,
6.8,
3.7,
3.0,
5.0,
6.5,
6.1,
5.6,
4.9,
6.1,
25.2,
18.4,
14.4,
14.2,
14.7,
10.3,
13.4,
5.7,
6.2,
4.8,
4.9,
4.2,
3.4,
3.9,
5.3,
5.8,
2.6,
3.4,
4.2,
8.4,
8.1,
8.2,
14.1,
17.7,
16.8,
11.9,
18.8,
27.0,
17.4,
19.2,
10.8,
9.9,
9.3,
7.7,
5.9,
5.9,
5.6,
5.9,
6.6,
3.8,
3.0,
2.5,
3.5,
6.9,
9.6,
13.0,
17.3,
16.5,
16.8,
14.0,
25.5,
22.4,
9.1,
7.1,
6.0,
6.7,
4.6,
4.9,
6.2,
5.2,
9.8,
5.9,
6.5,
-1,
9.1,
11.7,
-1,
14.2,
-1,
14.0,
-1,
15.7,
17.8,
-1,
15.1,
17.1,
-1,
20.4,
6.9,
-1,
11.6,
15.8,
6.8,
7.9,
7.4,
6.1,
6.6,
5.1,
4.3,
9.5,
13.2,
15.4,
15.9,
17.4,
17.1,
18.7,
21.3,
20.9,
21.6,
21.2,
21.5,
16.6,
14.9,
12.0,
5.5,
9.5,
15.7,
13.9,
13.6,
11.0,
5.7,
9.9,
16.2,
12.3,
22.4,
15.4,
22.0,
23.7,
20.3,
22.1,
22.7,
18.7,
14.6,
12.3,
16.0,
23.6,
20.6,
15.7,
14.4,
7.3,
6.1,
6.0,
4.0,
8.3,
11.5,
7.2,
5.0,
4.2,
3.5,
5.7,
5.7,
8.9,
12.7,
15.5,
-1,
22.1,
-1,
14.6,
-1,
4.2,
4.6,
8.4,
5.6,
6.0,
12.8,
13.3,
13.0,
9.6,
11.1,
9.4,
10.3,
12.2,
12.1,
9.3,
11.5,
14.8,
23.2,
28.8,
29.1,
25.3,
18.6,
14.7,
10.3,
15.2,
12.2,
18.8,
19.3,
20.7,
14.2,
14.1,
5.5,
7.2,
5.0,
6.9,
5.7,
12.0,
11.3,
9.1,
12.7,
19.0,
15.6,
20.3,
24.6,
25.1,
24.0,
14.4,
11.3,
5.7,
10.6,
8.2,
10.9,
13.1,
9.6,
12.6,
6.2,
8.2,
10.4,
6.7,
7.5,
3.7,
4.4,
3.1,
3.1,
3.4,
10.9,
25.6,
15.1,
23.2,
23.0,
20.0,
25.9,
22.3,
22.1,
17.3,
18.8,
13.5,
6.9,
5.4,
4.9,
8.5,
8.7,
6.3,
7.6,
2.7,
3.1,
4.9,
7.4,
17.2,
23.5,
28.0,
28.7,
24.8,
21.6,
24.0,
23.0,
14.5,
14.9,
14.3,
16.3,
9.9,
5.3,
4.9,
11.4,
8.6,
9.6,
6.7,
7.2,
7.6,
4.4,
4.3,
4.4,
6.1,
17.2,
22.7,
23.2,
24.5,
27.8,
22.9,
14.9,
13.2,
15.4,
12.7,
12.2,
8.9,
9.3,
9.7,
-1,
8.3,
6.4,
5.9,
5.2,
3.0,
6.6,
6.3,
8.1,
16.7,
25.1,
20.7,
21.4,
16.4,
12.8,
5.3,
6.0,
3.7,
6.1,
6.4,
5.1,
4.8,
3.1,
7.3,
4.9,
3.1,
3.3,
8.4,
12.6,
8.6,
7.4,
5.8,
4.2,
5.2,
7.4,
7.0,
5.4,
6.0,
8.6,
26.4,
19.9,
22.6,
20.8,
19.4,
15.8,
8.8,
4.4,
5.6,
6.6,
3.6,
4.1,
5.8,
4.4,
11.5,
15.6,
9.0,
11.4,
19.1,
15.1,
14.4,
28.5,
21.4,
11.2,
5.4,
2.7,
7.5,
9.0,
4.5,
3.4,
3.5,
3.1,
4.2,
3.6,
3.5,
2.9,
5.2,
6.4,
11.4,
14.1,
10.5,
12.3,
14.9,
13.9,
14.4,
18.5,
10.2,
5.5,
7.8,
16.1,
12.6,
12.2,
17.1,
13.9,
9.8,
12.0,
9.9,
10.8,
5.1,
3.4,
5.0,
5.3,
11.1,
11.7,
11.2,
11.2,
14.2,
14.5,
15.3,
16.5,
17.0,
16.4,
-1,
18.0,
16.2,
11.7,
8.9,
11.7,
5.2,
6.2,
6.8,
5.3,
4.3,
3.7,
1.9,
4.7,
12.0,
15.3,
14.6,
15.8,
16.9,
18.0,
14.8,
11.6,
14.1,
12.2,
7.9,
9.1,
19.3,
16.9,
15.4,
13.4,
7.0,
5.6,
5.8,
5.5,
3.2,
2.3,
6.4,
3.7,
9.4,
9.9,
9.8,
13.0,
14.9,
12.3,
12.2,
11.1,
11.0,
10.2,
16.7,
10.4,
11.3,
18.1,
9.0,
7.1,
4.2,
4.3,
5.5,
7.1,
8.0,
7.2,
8.4,
7.0,
10.0,
13.6,
19.5,
20.1,
18.7,
18.2,
17.1,
14.3,
21.2,
18.8,
21.1,
24.6,
24.2,
16.7,
13.0,
14.8,
11.4,
13.4,
9.7,
11.0,
11.5,
11.7,
11.7,
13.6,
16.5,
20.5,
24.4,
27.1,
29.2,
28.1,
23.0,
23.7,
21.8,
24.2,
22.8,
21.9,
17.2,
14.0,
18.3,
13.6,
17.9,
13.2,
14.4,
10.5,
10.2,
8.5,
9.0,
14.7,
15.7,
20.2,
19.8,
20.7,
21.3,
12.8,
9.2,
14.9,
15.6,
8.9,
5.6,
7.9,
16.6,
12.1,
15.3,
10.9,
15.1,
12.9,
14.0,
6.5,
9.9,
10.2,
9.2,
9.0,
12.2,
12.4,
15.0,
12.0,
12.2,
13.5,
16.8,
18.8,
16.7,
18.4,
13.9,
16.7,
18.5,
13.3,
9.9,
11.7,
7.7,
8.4,
8.8,
9.7,
9.2,
7.4,
8.3,
9.2,
10.5,
18.4,
19.6,
16.9,
17.0,
22.1,
18.6,
19.9,
18.9,
15.7,
13.5,
18.1,
15.0,
9.1,
14.8,
16.6,
13.6,
9.1,
8.3,
9.5,
10.7,
12.2,
11.9,
11.3,
20.6,
23.6,
26.1,
28.3,
26.1,
25.7,
27.7,
25.2,
28.7,
29.0,
29.3,
22.9,
20.2,
21.7,
25.4,
20.9,
17.5,
16.6,
7.8,
10.3,
11.4,
13.5,
14.2,
15.3,
20.2,
20.5,
22.5,
26.0,
21.1,
22.1,
19.6,
21.2,
18.5,
15.7,
14.9,
19.9,
22.4,
13.4,
7.1,
9.4,
8.1,
6.7,
5.1,
5.9,
4.2,
4.1,
4.0,
3.0,
4.6,
5.3,
5.7,
10.6,
12.7,
15.1,
18.5,
16.3,
10.7,
6.1,
4.3,
19.8,
24.1,
22.5,
17.1,
10.3,
7.5,
5.5,
5.5,
3.0,
3.9,
6.1,
5.7,
6.1,
5.1,
6.2,
8.9,
10.2,
11.6,
14.0,
17.2,
19.4,
18.2,
17.1,
23.8,
26.7,
23.0,
21.3,
23.2,
15.1,
10.6,
7.0,
6.1,
5.3,
7.8,
7.2,
7.0,
5.9,
5.4,
9.3,
10.2,
11.0,
11.9,
14.2,
16.7,
18.8,
20.5,
17.8,
25.3,
31.5,
29.5,
25.5,
13.4,
13.4,
16.7,
9.5,
5.3,
6.8,
6.3,
7.4,
7.0,
8.7,
5.2,
11.6,
13.9,
15.9,
16.9,
16.7,
17.1,
18.0,
28.7,
29.1,
30.3,
32.5,
26.8,
12.3,
14.6,
14.2,
19.8,
18.3,
14.9,
14.0,
9.1,
13.8,
14.0,
12.7,
12.7,
14.5,
16.4,
15.4,
16.9,
15.1,
15.9,
17.3,
17.9,
23.0,
25.9,
27.7,
28.3,
25.8,
15.4,
6.1,
10.8,
9.0,
4.5,
4.1,
6.1,
6.1,
6.9,
5.8,
4.4,
9.3,
13.8,
14.7,
13.9,
13.6,
14.2,
10.7,
12.9,
16.8,
19.3,
27.5,
16.8,
13.8,
11.4,
6.9,
5.3,
5.8,
5.3,
5.6,
6.5,
6.6,
7.3,
5.7,
2.9,
10.2,
10.3,
13.6,
12.5,
13.7,
13.8,
16.7,
16.7,
11.8,
9.7,
9.0,
22.8,
17.7,
11.3,
10.6,
11.4,
8.1,
4.0,
4.5,
4.9,
4.1,
5.7,
3.5,
6.2,
9.6,
14.2,
15.2,
15.5,
13.7,
12.3,
13.4,
16.2,
14.5,
18.2,
14.1,
14.8,
21.0,
19.1,
19.1,
16.4,
17.4,
5.5,
3.8,
3.7,
5.1,
4.3,
4.1,
4.6,
6.7,
6.3,
3.0,
5.4,
7.1,
7.4,
10.0,
8.6,
2.6,
10.6,
6.6,
6.5,
3.9,
3.3,
6.2,
6.0,
8.2,
7.2,
4.3,
2.4,
6.1,
7.0,
3.6,
3.5,
2.5,
5.6,
7.1,
8.1,
11.2,
14.6,
13.9,
18.1,
15.0,
13.5,
14.0,
8.7,
7.6,
11.0,
8.6,
9.8,
6.2,
4.7,
6.5,
4.8,
2.9,
9.2,
10.9,
8.1,
11.5,
27.8,
29.5,
29.1,
29.4,
24.5,
20.8,
20.9,
23.7,
23.8,
16.7,
9.9,
15.5,
8.4,
10.5,
7.5,
7.3,
6.1,
8.2,
5.4,
7.3,
13.1,
16.0,
19.3,
24.8,
26.5,
26.8,
30.0,
26.4,
20.5,
22.0,
19.0,
21.8,
14.8,
10.5,
4.6,
8.5,
3.4,
9.1,
9.1,
7.6,
4.3,
4.9,
5.6,
6.6,
6.2,
4.1,
3.7,
10.5,
10.0,
11.9,
14.4,
15.8,
11.4,
14.0,
21.2,
23.1,
13.3,
8.8,
10.9,
4.9,
3.6,
4.4,
4.4,
7.5,
4.2,
6.0,
7.3,
6.1,
7.7,
3.2,
2.7,
3.3,
4.5,
5.2,
6.2,
8.1,
16.9,
18.5,
14.6,
14.8,
11.4,
6.0,
14.6,
10.9,
10.6,
4.6,
6.3,
9.1,
5.1,
4.8,
6.3,
5.3,
3.6,
4.0,
4.7,
4.5,
2.6,
4.6,
17.9,
10.4,
19.0,
24.9,
27.4,
27.2,
22.0,
14.3,
8.4,
8.8,
4.5,
8.5,
7.2,
7.6,
5.9,
7.2,
9.0,
6.5,
7.3,
3.9,
2.7,
3.9,
3.7,
2.7,
5.6,
4.0,
11.6,
27.7,
21.3,
16.4,
9.7,
10.2,
9.1,
6.7,
6.3,
6.0,
5.2,
6.4,
3.4,
5.7,
5.4,
6.0,
4.7,
4.3,
7.3,
12.6,
8.3,
7.5,
9.5,
8.9,
13.3,
15.4,
15.3,
20.6,
16.0,
17.8,
13.8,
7.5,
7.1,
13.5,
6.7,
4.6,
7.0,
5.7,
5.4,
5.7,
5.6,
5.8,
8.5,
15.0,
16.3,
13.9,
11.3,
8.6,
13.6,
10.3,
24.9,
29.2,
18.8,
10.9,
7.1,
6.1,
7.4,
6.7,
7.9,
6.5,
6.1,
7.1,
4.0,
5.8,
6.3,
4.9,
4.2,
3.9,
3.3,
6.4,
7.1,
11.6,
12.9,
10.6,
12.5,
8.8,
8.5,
16.3,
26.8,
22.0,
11.4,
10.3,
14.3,
14.6,
12.0,
8.5,
5.6,
5.8,
7.2,
5.0,
5.1,
15.5,
20.8,
19.9,
19.1,
23.1,
21.9,
21.0,
19.9,
18.7,
15.5,
19.0,
20.5,
18.2,
13.7,
12.1,
10.9,
10.2,
11.8,
9.1,
5.1,
8.7,
11.1,
13.4,
17.0,
20.3,
20.5,
22.8,
20.8,
25.9,
26.4,
25.3,
19.4,
20.9,
14.1,
10.4,
9.2,
10.7,
19.6,
9.1,
10.2,
10.4,
11.3,
11.8,
8.4,
10.7,
10.3,
11.4,
12.4,
16.0,
19.5,
19.4,
22.9,
19.3,
18.9,
23.3,
21.9,
20.1,
26.7,
22.6,
13.7,
10.3,
15.7,
13.0,
9.8,
10.8,
8.0,
6.0,
6.0,
8.0,
8.7,
10.7,
10.8,
17.9,
21.1,
20.4,
23.5,
26.6,
25.4,
26.3,
30.9,
27.1,
25.4,
25.9,
9.6,
13.1,
9.6,
9.0,
5.0,
4.5,
4.4,
4.9,
6.0,
7.0,
4.1,
3.3,
5.7,
9.0,
11.1,
15.5,
18.2,
17.4,
17.8,
18.5,
20.4,
20.9,
14.3,
19.8,
17.7,
14.8,
7.3,
4.8,
6.7,
6.1,
6.5,
5.1,
6.4,
6.3,
6.6,
5.5,
3.1,
4.4,
4.4,
4.4,
8.3,
10.5,
11.7,
14.5,
16.7,
13.3,
7.3,
5.7,
9.6,
8.8,
7.4,
7.8,
3.7,
7.6,
7.1,
6.4,
6.6,
3.2,
3.7,
3.9,
2.6,
3.1,
4.5,
7.4,
8.4,
9.5,
10.5,
11.8,
14.2,
29.2,
19.3,
12.4,
6.0,
5.5,
4.5,
3.5,
4.0,
4.6,
7.0,
8.0,
7.7,
7.7,
6.5,
8.7,
4.5,
9.1,
17.6,
15.2,
10.0,
6.1,
5.1,
6.5,
16.7,
22.4,
11.4,
11.9,
8.7,
9.2,
6.5,
4.5,
5.6,
5.8,
6.0,
5.8,
5.2,
5.7,
7.1,
4.7,
3.4,
3.5,
3.0,
4.1,
8.0,
8.9,
5.7,
7.3,
9.4,
9.1,
4.3,
7.4,
3.6,
6.7,
6.5,
5.4,
5.6,
6.8,
6.3,
6.4,
6.6,
8.7,
6.2,
3.7,
3.5,
3.2,
6.8,
11.6,
12.3,
12.2,
11.9,
9.6,
21.4,
20.4,
11.6,
7.5,
5.4,
4.1,
6.3,
5.4,
5.6,
8.2,
6.7,
8.8,
5.4,
6.8,
6.2,
4.4,
4.1,
4.6,
5.8,
4.3,
8.5,
10.1,
13.2,
12.9,
17.4,
20.7,
26.8,
21.8,
13.8,
4.9,
7.6,
5.6,
3.2,
5.0,
7.7,
13.9,
14.8,
15.2,
19.6,
23.3,
21.5,
28.2,
30.2,
31.6,
32.4,
27.1,
28.1,
25.9,
22.7,
22.1,
20.2,
15.6,
16.9,
13.1,
12.9,
23.5,
21.6,
17.5,
22.2,
21.4,
20.8,
21.7,
23.7,
17.1,
22.7,
33.4,
34.1,
40.7,
40.8,
40.6,
37.0,
39.1,
37.3,
30.8,
29.5,
27.3,
21.7,
20.6,
16.9,
7.6,
4.8,
5.4,
6.9,
7.3,
6.1,
6.5,
6.1,
2.8,
4.1,
8.0,
10.2,
13.5,
12.0,
18.2,
19.5,
20.8,
19.6,
13.2,
12.6,
18.7,
23.9,
19.6,
14.3,
16.6,
14.0,
8.3,
4.8,
6.3,
7.1,
5.9,
3.1,
4.6,
3.3,
5.3,
8.5,
14.6,
18.3,
19.1,
20.3,
18.0,
16.9,
14.7,
26.0,
26.9,
30.1,
20.1,
14.7,
12.2,
12.3,
14.4,
9.1,
5.5,
6.6,
6.2,
7.0,
9.8,
11.2,
16.2,
15.7,
16.6,
15.7,
17.6,
11.6,
16.0,
27.2,
29.5,
33.0,
29.7,
28.5,
18.9,
16.9,
6.3,
5.8,
5.0,
4.3,
2.9,
4.7,
5.7,
5.8,
5.2,
10.4,
25.2,
25.5,
19.5,
16.1,
16.7,
16.2,
21.8,
26.5,
26.6,
28.7,
30.8,
22.9,
18.2,
12.1,
7.7,
5.5,
4.9,
5.8,
6.4,
6.8,
6.5,
6.7,
3.4,
8.8,
9.1,
11.0,
10.9,
12.5,
10.5,
10.4,
12.4,
14.0,
14.3,
7.8,
20.0,
26.5,
15.7,
13.5,
8.8,
5.5,
7.0,
6.8,
7.3,
6.5,
6.3,
7.5,
6.2,
2.3,
3.6,
4.1,
6.7,
8.1,
7.5,
10.3,
10.1,
9.7,
9.3,
15.9,
9.7,
9.9,
7.8,
5.5,
7.6,
7.6,
6.0,
5.8,
7.8,
5.7,
5.6,
5.4,
5.8,
4.9,
2.3,
3.0,
5.1,
7.1,
8.2,
8.8,
9.3,
23.7,
28.2,
19.5,
14.1,
11.1,
12.4,
9.6,
9.0,
13.1,
8.6,
5.9,
5.2,
5.5,
4.5,
4.2,
4.9,
2.3,
3.3,
7.1,
6.7,
6.4,
5.2,
6.2,
8.3,
5.5,
23.4,
24.0,
18.5,
14.3,
8.8,
7.7,
9.0,
5.6,
3.8,
3.6,
4.1,
5.3,
3.4,
3.3,
3.1,
3.2,
5.4,
6.5,
7.5,
5.6,
7.5,
5.5,
8.2,
10.3,
18.5,
15.0,
11.8,
9.6,
9.4,
6.7,
8.7,
5.5,
5.4,
7.5,
5.8,
4.2,
5.2,
5.8,
4.1,
2.1,
2.3,
1.5,
2.5,
4.6,
4.6,
8.9,
16.0,
24.8,
18.0,
13.3,
14.2,
9.8,
7.7,
4.6,
5.6,
6.6,
7.5,
7.2,
7.7,
5.6,
5.6,
7.7,
7.3,
4.4,
3.3,
4.7,
5.6,
5.1,
3.4,
5.4,
21.8,
25.3,
18.6,
13.8,
17.7,
15.3,
8.2,
9.4,
10.4,
7.4,
7.2,
8.7,
10.5,
7.0,
8.5,
9.1,
5.5,
6.9,
17.8,
24.5,
23.4,
25.2,
28.1,
33.2,
33.9,
30.6,
28.5,
24.2,
19.2,
20.6,
23.6,
12.2,
3.8,
6.7,
8.5,
6.4,
6.6,
5.2,
8.5,
5.9,
5.4,
4.8,
4.8,
20.9,
24.2,
24.8,
26.3,
29.2,
32.9,
33.3,
27.3,
20.6,
23.0,
12.2,
9.2,
8.1,
6.7,
8.4,
8.4,
8.4,
9.6,
4.8,
5.9,
6.3,
4.7,
2.4,
2.5,
5.8,
17.0,
22.3,
22.8,
23.0,
23.2,
24.4,
23.3,
15.8,
15.7,
10.5,
10.6,
4.1,
4.9,
3.9,
3.9,
3.5,
2.5,
5.3,
4.3,
6.5,
3.1,
4.1,
2.6,
16.4,
28.8,
29.0,
28.0,
33.0,
34.5,
35.4,
27.4,
24.1,
21.3,
23.4,
27.3,
23.5,
18.4,
13.1,
10.4,
8.4,
5.9,
10.3,
11.9,
9.5,
6.5,
4.7,
12.7,
32.1,
34.2,
35.7,
35.7,
37.6,
37.9,
36.8,
34.8,
34.9,
26.0,
22.5,
22.5,
22.4,
15.4,
10.7,
10.6,
9.8,
10.3,
7.1,
6.7,
7.1,
5.2,
4.9,
6.4,
17.1,
13.5,
5.9,
7.4,
6.0,
10.8,
27.7,
26.2,
22.5,
14.6,
12.0,
6.7,
3.1,
2.9,
4.9,
5.5,
3.9,
3.2,
4.2,
4.4,
18.6,
19.4,
36.5,
39.0,
38.0,
38.1,
31.8,
28.8,
26.2,
28.3,
31.1,
29.7,
25.9,
26.3,
27.2,
24.5,
20.4,
10.3,
3.1,
5.0,
9.2,
3.6,
3.4,
6.3,
4.9,
6.2,
3.6,
7.1,
9.4,
13.2,
17.3,
18.1,
20.9,
22.3,
-1,
15.7,
-1,
11.5,
8.5,
11.8,
7.3,
10.9,
6.1,
4.7,
7.6,
4.5,
6.1,
7.9,
-1,
4.7,
3.4,
8.0,
10.2,
13.6,
19.5,
19.1,
18.5,
18.6,
16.6,
12.9,
23.4,
33.8,
29.7,
6.2,
11.3,
12.7,
14.3,
14.2,
13.6,
13.4,
10.1,
7.3,
5.3,
4.3,
12.1,
17.8,
20.2,
19.5,
18.8,
19.4,
21.4,
23.5,
31.2,
33.9,
37.4,
29.1,
20.5,
14.0,
13.2,
10.8,
12.3,
6.9,
6.0,
6.9,
5.1,
5.9,
6.1,
4.8,
2.5,
5.9,
8.0,
10.1,
-1,
8.8,
-1,
15.1,
16.4,
-1,
12.0,
18.2,
19.5,
7.6,
8.8,
7.2,
4.7,
6.4,
7.0,
7.1,
5.7,
8.2,
5.8,
4.4,
3.8,
6.5,
8.3,
9.3,
11.3,
15.0,
18.3,
18.5,
18.3,
13.1,
8.8,
3.6,
8.6,
12.3,
11.5,
7.3,
14.7,
23.2,
19.3,
7.2,
4.4,
5.8,
4.8,
6.5,
13.0,
34.8,
35.2,
30.8,
31.3,
32.8,
32.4,
30.5,
30.6,
32.8,
27.6,
18.1,
16.7,
17.5,
15.8,
14.1,
12.5,
8.0,
6.0,
6.1,
6.6,
4.7,
5.4,
6.5,
4.0,
4.8,
7.7,
17.7,
17.6,
14.4,
11.3,
11.9,
13.8,
22.6,
28.2,
19.9,
14.6,
9.8,
8.2,
8.6,
9.5,
8.4,
8.2,
7.8,
5.7,
4.8,
5.5,
3.8,
3.2,
4.0,
4.7,
8.1,
12.9,
13.1,
12.2,
14.0,
15.8,
11.9,
7.2,
4.7,
6.6,
8.1,
6.5,
10.1,
8.8,
6.2,
3.6,
4.2,
6.9,
4.4,
5.4,
4.9,
3.1,
3.5,
7.2,
10.8,
12.5,
17.6,
21.1,
23.2,
18.4,
20.3,
19.0,
34.5,
34.9,
17.5,
8.2,
21.4,
23.3,
18.0,
15.2,
11.9,
6.1,
6.6,
9.9,
3.4,
10.0,
21.4,
23.6,
18.4,
15.6,
12.6,
16.4,
15.5,
18.8,
22.8,
30.7,
28.3,
16.4,
12.7,
10.9,
8.2,
9.5,
6.5,
7.0,
6.8,
5.8,
4.6,
5.4,
4.9,
3.8,
3.5,
4.1,
5.2,
8.8,
12.4,
9.1,
8.9,
9.8,
9.3,
16.6,
14.2,
9.7,
9.8,
7.4,
5.2,
5.4,
4.6,
4.6,
3.5,
4.8,
4.3,
5.0,
2.2,
2.9,
2.0,
5.7,
8.3,
8.4,
8.8,
9.3,
8.7,
12.3,
15.6,
19.9,
14.3,
11.1,
13.2,
10.1,
6.7,
9.6,
4.3,
4.0,
4.0,
3.8,
4.5,
4.1,
4.3,
2.2,
2.7,
4.5,
8.7,
7.1,
8.9,
9.2,
13.8,
19.1,
17.9,
19.4,
17.4,
13.3,
10.7,
10.4,
9.6,
11.8,
5.7,
5.7,
4.3,
3.9,
4.1,
3.6,
4.2,
6.3,
19.7,
30.2,
28.8,
28.9,
29.7,
33.8,
33.2,
34.7,
39.7,
35.5,
35.4,
26.7,
30.3,
27.0,
24.4,
21.9,
17.7,
19.7,
15.2,
6.2,
6.1,
10.3,
3.9,
3.5,
2.5,
6.1,
10.5,
10.7,
8.9,
22.9,
26.6,
28.2,
24.7,
21.3,
21.6,
21.0,
14.3,
7.9,
9.2,
5.9,
6.5,
10.4,
8.4,
5.3,
4.5,
3.8,
3.7,
2.6,
4.1,
4.5,
7.2,
8.1,
5.0,
3.1,
7.0,
10.8,
17.7,
18.8,
12.7,
8.3,
6.5,
7.5,
6.7,
5.9,
6.9,
7.5,
7.2,
7.5,
8.3,
8.5,
7.5,
7.3,
4.0,
5.3,
4.0,
8.2,
10.1,
10.8,
12.4,
12.3,
18.7,
23.4,
15.0,
10.4,
11.6,
8.4,
8.8,
9.0,
10.2,
3.9,
4.5,
4.4,
4.2,
4.9,
4.5,
2.5,
3.2,
15.9,
21.0,
22.7,
26.6,
29.0,
29.7,
28.6,
23.6,
17.3,
14.5,
10.7,
9.9,
7.9,
8.2,
5.3,
6.0,
4.1,
4.1,
4.5,
4.3,
6.1,
4.9,
2.1,
3.0,
4.6,
8.8,
10.5,
3.6,
10.1,
21.0,
24.1,
26.1,
19.7,
8.4,
8.2,
8.6,
7.7,
5.1,
5.0,
5.3,
4.9,
6.1,
5.1,
5.8,
6.2,
5.5,
3.2,
4.5,
2.5,
6.6,
8.0,
12.8,
11.4,
15.2,
20.8,
26.9,
21.9,
16.5,
9.2,
10.6,
9.7,
11.0,
4.8,
3.7,
3.6,
4.8,
5.0,
6.6,
5.4,
3.0,
4.2,
2.0,
5.3,
7.8,
6.9,
10.0,
8.5,
11.7,
15.3,
11.7,
4.7,
5.6,
8.6,
8.5,
5.0,
6.0,
7.1,
8.0,
6.2,
9.3,
6.4,
6.7,
7.3,
7.3,
4.6,
2.1,
3.0,
4.9,
7.7,
7.1,
8.4,
9.1,
25.6,
22.3,
15.3,
8.0,
9.9,
7.5,
9.8,
12.0,
13.0,
7.7,
5.7,
8.2,
3.5,
5.3,
6.8,
5.3,
5.5,
4.8,
7.6,
20.5,
23.3,
19.6,
19.3,
28.2,
30.1,
29.8,
24.3,
23.2,
23.2,
17.9,
8.3,
7.8,
7.9,
5.4,
9.4,
7.1,
14.8,
16.5,
13.4,
7.8,
12.1,
16.7,
25.2,
31.0,
29.0,
30.4,
30.6,
32.2,
32.9,
31.8,
22.7,
32.6,
35.9,
30.3,
25.2,
12.3,
8.6,
10.7,
5.0,
6.4,
4.3,
5.7,
4.4,
5.0,
2.6,
2.7,
4.1,
3.5,
10.9,
21.8,
25.0,
26.4,
18.7,
15.6,
16.2,
10.1,
10.7,
10.7,
4.8,
3.3,
4.2,
3.5,
3.1,
4.7,
3.0,
4.4,
4.5,
6.0,
3.5,
2.4,
8.4,
11.0,
9.7,
8.0,
14.2,
13.4,
12.8,
8.8,
7.6,
4.0,
6.3,
5.3,
5.6,
5.5,
6.3,
4.8,
6.9,
6.2,
6.8,
7.3,
7.2,
6.7,
6.9,
4.7,
3.6,
1.8,
10.1,
12.2,
14.5,
16.0,
15.4,
24.2,
17.7,
15.2,
7.6,
8.6,
5.8,
10.3,
5.2,
5.6,
3.1,
4.8,
5.1,
4.5,
3.9,
5.2,
3.4,
9.3,
19.4,
22.8,
22.4,
20.7,
23.5,
26.9,
29.7,
29.9,
24.2,
25.1,
21.4,
23.6,
18.2,
10.6,
4.6,
6.2,
7.5,
8.7,
6.5,
7.8,
3.5,
5.5,
3.5,
2.7,
2.5,
2.6,
4.1,
6.3,
7.5,
13.5,
25.0,
27.3,
20.2,
17.0,
9.9,
8.9,
5.9,
4.5,
2.7,
5.3,
4.5,
3.2,
6.1,
3.0,
4.3,
4.9,
2.6,
3.0,
5.8,
9.2,
13.5,
16.9,
16.0,
16.2,
14.1,
15.1,
16.1,
8.8,
6.4,
7.0,
6.4,
6.5,
6.3,
7.4,
6.9,
6.6,
7.4,
5.4,
7.1,
5.9,
4.3,
1.9,
2.1,
9.1,
8.5,
4.8,
9.0,
18.2,
28.4,
25.5,
20.5,
16.3,
11.4,
10.9,
10.1,
11.5,
10.9,
5.8,
3.7,
4.0,
3.0,
4.4,
3.4,
3.6,
3.0,
3.0,
2.6,
3.2,
15.0,
16.0,
18.6,
20.0,
21.5,
23.0,
20.2,
13.8,
12.2,
11.2,
10.1,
9.9,
4.8,
5.2,
3.4,
3.3,
3.1,
4.2,
5.2,
5.7,
3.4,
2.7,
4.8,
6.2,
5.9,
4.3,
10.4,
29.0,
28.0,
24.2,
15.5,
10.2,
9.9,
8.4,
3.0,
3.1,
4.0,
3.4,
4.8,
3.6,
5.1,
4.1,
5.2,
5.0,
3.6,
3.5,
4.2,
11.3,
10.2,
14.0,
12.3,
15.6,
17.4,
15.8,
20.9,
9.7,
7.7,
7.5,
6.3,
8.4,
6.9,
5.9,
4.1,
5.0,
5.2,
3.9,
5.8,
6.0,
3.3,
1.9,
3.1,
3.5,
8.4,
7.8,
8.8,
12.8,
13.8,
10.7,
18.2,
10.0,
12.2,
9.2,
5.8,
6.7,
5.2,
6.3,
4.2,
4.1,
4.4,
5.4,
5.7,
5.3,
3.0,
2.2,
8.7,
9.0,
9.7,
9.7,
12.9,
9.4,
9.3,
11.5,
10.6,
11.3,
14.6,
24.8,
13.5,
20.7,
19.3,
6.3,
7.7,
7.7,
8.5,
8.6,
6.7,
4.2,
4.2,
2.5,
5.6,
15.0,
19.6,
16.3,
13.2,
18.2,
22.0,
22.8,
20.6,
22.0,
17.3,
10.6,
10.1,
12.1,
8.6,
9.7,
17.3,
7.3,
5.5,
6.0,
6.3,
5.1,
5.9,
13.6,
24.5,
26.7,
23.4,
22.2,
20.2,
22.6,
24.2,
22.8,
17.0,
18.0,
15.2,
6.9,
9.7,
11.8,
8.3,
3.7,
5.1,
3.5,
3.6,
3.2,
2.4,
6.0,
2.4,
3.2,
4.4,
9.0,
8.6,
7.5,
9.6,
10.8,
13.2,
9.4,
10.9,
11.6,
9.7,
9.9,
6.1,
6.1,
8.0,
8.3,
6.7,
8.7,
8.8,
6.2,
7.2,
6.7,
3.5,
1.7,
3.3,
23.7,
24.2,
19.7,
16.8,
15.5,
15.6,
17.8,
18.8,
9.2,
7.2,
8.6,
12.0,
8.0,
8.7,
5.3,
2.7,
3.7,
4.2,
4.4,
2.8,
5.4,
2.2,
3.8,
4.0,
7.9,
21.5,
24.1,
24.4,
24.4,
26.2,
29.2,
24.9,
16.8,
13.7,
10.5,
9.4,
9.0,
7.0,
5.5,
6.0,
5.4,
6.3,
4.3,
4.3,
4.3,
4.2,
2.7,
13.1,
27.4,
